Os gráficos que explicam nossos dados (histograma)
…
      Data Science, 
    
      Gráficos

Histogramas são usados para mostrar a frequência com que uma variável ocorre. Isto é muito interessante para mostrar qual a distribuição dos seus dados e podemos apresentar em forma de frequência absoluta, relativa, percentual e acumulada. Para exemplificar este tipo gráfico, vamos utilizar os dados de inventário de uma propriedade fictícia na Amazônia. Estes dados são meramente ilustrativos e não tem valor real. O objetivo aqui é apresentar algumas particularidades da construção de gráficos de barras no R e facilitar a vida de quem quer abandonar os gráficos do Excel.

library(pacman)
p_load(readr, dplyr, ggplot2, ggthemes)

dados <- read_csv2("https://goo.gl/ezA3hH")

dados

## # A tibble: 276 × 7
##             Especie              Nome_cientifico Comercial   DAP  HCom
##               <chr>                        <chr>     <chr> <int> <int>
## 1  NAO IDENTIFICADA             Nao Identificada       Nao    20    10
## 2            EMBIRA                Lecythidaceae       Nao    34    13
## 3  NAO IDENTIFICADA             Nao Identificada       Nao    18     6
## 4          SUCUPIRA   Leguminosae-Papilionoideae       Nao    18     7
## 5            CANELA                    Lauraceae       Nao    24    10
## 6             TACHI                Lecythidaceae       Sim    21    10
## 7       ENVIRA CAJU                   Annonaceae       Nao    20    11
## 8             JUTAI Leguminosae-Caesalpinioideae       Nao    38    13
## 9           CATUABA                 Vochysiaceae       Sim    57    13
## 10 NAO IDENTIFICADA             Nao Identificada       Nao    22     7
## # ... with 266 more rows, and 2 more variables: Volume <dbl>, QF <int>
…
