Gráficos com dimensão espacial e temporal
…
              O post de hoje é sobre visualização de dados com dimensão espacial e temporal. Basicamente são gráficos que têm uma representação geográfica associada a informações que variam no tempo. Este tipo de análise é comum no meu dia a dia e por isso resolvi deixar 3 alternativas resgistradas aqui. O contexto que iremos abordar está relacionado ao banco de dados de focos de incêndios registrados pelo INPE no Programa Queimadas Monitoramento por Satélites. O site é bem interessante e apresenta algumas estatísticas úteis sobre as queimadas na América do Sul e Brasil. Iremos trabalhar com a tabela que resume os focos de incêndios por ano e Estado brasileiro.

if (!require("pacman")) install.packages("pacman")
pacman::p_load(readr, dplyr, sf, ggplot2, ggthemes, geofacet, gganimate, viridis, scales)
pacman::p_load_gh("italocegatta/brmap")
pacman::p_load_gh("dgrtwo/gganimate")

O primeiro passo foi copiar os dados da página e organizá-los no formato tidy. Poderíamos fazer uma análise exploratória dos dados, mas quero manter o foco em algo bem pontual: como mostrar os dados brutos de uma só vez? Ou seja, considerando a dimensão de tempo (ano), geografia (localização do estado) e variável resposta (focos) na mesma janela gráfica, de que forma poderíamos apresentar os dados?

focos <- read_csv2("https://raw.githubusercontent.com/italocegatta/italocegatta.github.io_source/master/content/dados/base_incendios.csv")

focos

## # A tibble: 162 x 3
##    sigla   ano focos
##    <chr> <int> <int>
##  1 AC     2011    13
##  2 AL     2011   127
##  3 AM     2011   159
##  4 AP     2011     5
##  5 BA     2011   883
##  6 CE     2011    44
##  7 DF     2011     8
##  8 ES     2011    55
##  9 GO     2011   492
## 10 MA     2011   656
## # ... with 152 more rows

Vamos agora adicionar a referência espacial aos dados utilizando os polígonos do pacote brmap.

estados_focos <-  focos %>% 
  left_join(brmap_estado, by = "sigla")

estados_focos

## # A tibble: 162 x 6
##    sigla   ano focos cod_estado estado                            geometry
##    <chr> <int> <int>      <dbl> <chr>                       <POLYGON [Â°]>
##  1 AC     2011    13        12. Acre             ((-73.18253 -7.335496, -~
##  2 AL     2011   127        27. Alagoas          ((-35.46659 -8.817636, -~
##  3 AM     2011   159        13. Amazonas         ((-67.32609 2.029714, -6~
##  4 AP     2011     5        16. Amapá            ((-51.1797 4.000081, -51~
##  5 BA     2011   883        29. Bahia            ((-39.36446 -8.53785, -3~
##  6 CE     2011    44        23. Ceará            ((-40.49717 -2.784509, -~
##  7 DF     2011     8        53. Distrito Federal ((-48.05328 -15.50026, -~
##  8 ES     2011    55        32. Espírito Santo   ((-40.50333 -17.91068, -~
##  9 GO     2011   492        52. Goiás            ((-50.16015 -12.42007, -~
## 10 MA     2011   656        21. Maranhão         ((-45.84073 -1.045485, -~
## # ... with 152 more rows
…
