Como um cientista de dados pesquisa o carro que quer comprar?
…
Para aqueles que já passaram pela etapa de compra ou venda de um carro, provavelmente já consultaram a famosa tabela. Nas palavras do próprio site da FIPE:

A Tabela Fipe expressa preços médios de veículos no mercado nacional, servindo apenas como um parâmetro para negociações ou avaliações. Os preços efetivamente praticados variam em função da região, conservação, cor, acessórios ou qualquer outro fator que possa influenciar as condições de oferta e procura por um veículo específico.

A motivação para este pacote foi exclusivamente pessoal e por isso a utilização das funções está bastante restrita. Por isso, se alguém quiser ajudar no desenvolvimento do pacote é só chegar e mandar um Pull Request no Github, contribuições serão muito bem-vindas.

Primeiro vou mostrar as funções e o workflow idealizado para o pacote. Queremos saber, por enquanto, o preço atual de uma BMW X6 M ano 2015. O primeiro passo é definir o mês de referência que se deseja consultar o preço do veículo. A FIPE disponibiliza os valores consolidados desde janeiro de 2001.

if (!require("pacman")) install.packages("pacman")
pacman::p_load(dplyr, purrr, stringr, tidyr, forcats, ggplot2)
pacman::p_load_gh("italocegatta/fipe")

fipe_referencia()

## # A tibble: 216 x 2
##    data_ref   cod_ref
##    <date>       <int>
##  1 2018-12-01     236
##  2 2018-11-01     235
##  3 2018-10-01     234
##  4 2018-09-01     233
##  5 2018-08-01     232
##  6 2018-07-01     231
##  7 2018-06-01     230
##  8 2018-05-01     229
##  9 2018-04-01     228
## 10 2018-03-01     227
## # ... with 206 more rows

Como o objetivo saber o preço atual do veículo, pegaremos o código 215 (mês em que escrevo este post). Agora vamos procurar o código da marca BMW. Note que precisamos inserir o código do mês de referência para consultar a marca, essa é uma exigência do site da FIPE. Lembrando que o pacote não possui nenhum banco de dados armazenado, todas as informações são consultadas no site da tabela FIPE no ato da execução da função.

fipe_marca(cod_ref = 215)

## # A tibble: 87 x 2
##    marca        cod_marca
##    <chr>            <int>
##  1 Acura                1
##  2 Agrale               2
##  3 Alfa Romeo           3
##  4 AM Gen               4
##  5 Asia Motors          5
##  6 ASTON MARTIN       189
##  7 Audi                 6
##  8 BMW                  7
##  9 BRM                  8
## 10 Buggy                9
## # ... with 77 more rows

Por sorte, o código 7 da BMW aparece logo nos primeiros valores por ordem alfabética. Podemos seguir para o próximo passo e pegar o código do modelo que queremos. A consulta a baixo mostras que a BMW tem 221 modelos cadastrados na tabela FIPE. Como já definimos o modelo que queremos, vamos filtrar do dataframe para enxergar o código do modelo.

(bmw <- fipe_modelo(cod_ref = 215, cod_marca = 7))

## # A tibble: 221 x 2
##    modelo                                 cod_modelo
##    <chr>                                       <int>
##  1 116iA 1.6 TB 16V 136cv 5p                    6146
##  2 118iA 2.0 16V 136cv 3p                       5576
##  3 118iA 2.0 16V 136cv 5p                       4960
##  4 118iA Full 1.6 TB 16V 170cv 5p               6147
##  5 118iA/ Urban/Sport 1.6 TB 16V 170cv 5p       5923
##  6 120i 2.0 16V 150cv/ 156cv 5p                  152
##  7 120iA 2.0 16V 150cv/ 156cv 5p                 153
##  8 120iA 2.0 16V 156cv 3p                       4700
##  9 120iA Cabrio 2.0 16V 156cv 2p                4683
## 10 120iA Sport 2.0/ActiveFlex 16V Aut.          7178
## # ... with 211 more rows
…
Agora que já conhecemos as funções e o fluxo para consultar o valor dos carros, vamos ampliar a consulta e justificar as horas que passamos aprendendo a programar. Já sabemos o preço do X6 M em julho/2017, mas e nos meses anteriores? Como será que foi a depreciação média do carro usado nos últimos meses? E os outros modelos X6, quanto será que estão valendo?

Digamos que, agora, estas questões podem ser respondidas de forma bem rápida. Eu mostro.

Vamos retomar os passos, mas agora no nível hard. Vou analisar o comportamento dos preços desde 2009. Para deixar a consulta mais rápida, serão considerados apenas 3 meses de referência por ano.

(base_marca <- fipe_referencia() %>%
  filter(data_ref %in% seq.Date(as.Date("2009-01-01"), as.Date("2017-07-01"), by = "4 months")) %>%
  mutate(marca = map(cod_ref, fipe_marca)) %>%
  unnest() %>% 
  filter(marca == "BMW")
)

## # A tibble: 26 x 4
##    data_ref   cod_ref marca cod_marca
##    <date>       <int> <chr>     <int>
##  1 2017-05-01     212 BMW           7
##  2 2017-01-01     202 BMW           7
##  3 2016-09-01     196 BMW           7
##  4 2016-05-01     191 BMW           7
##  5 2016-01-01     187 BMW           7
##  6 2015-09-01     183 BMW           7
##  7 2015-05-01     179 BMW           7
##  8 2015-01-01     174 BMW           7
##  9 2014-09-01     170 BMW           7
## 10 2014-05-01     166 BMW           7
## # ... with 16 more rows

Notem que agora temos um dataframe com códigos de referência entre janeiro/2008 a maio/2017. Seguindo a análise, precisamos encontrar os códigos dos modelos X6.

(base_modelo <- mutate(base_marca, modelo = map2(cod_ref, cod_marca, fipe_modelo)) %>%
  unnest() %>% 
  filter(str_detect(modelo, "X6"))
)

## # A tibble: 82 x 6
##    data_ref   cod_ref marca cod_marca modelo                     cod_modelo
##    <date>       <int> <chr>     <int> <chr>                           <int>
##  1 2017-05-01     212 BMW           7 X6 M 4.4 4x4 V8 32V Bi-Tu~       5189
##  2 2017-05-01     212 BMW           7 X6 XDRIVE 35i 3.0 306cv B~       4745
##  3 2017-05-01     212 BMW           7 X6 XDRIVE 50i 4.4 407cv B~       4746
##  4 2017-05-01     212 BMW           7 X6 XDRIVE 50i M Sport 4.4~       7088
##  5 2017-01-01     202 BMW           7 X6 M 4.4 4x4 V8 32V Bi-Tu~       5189
##  6 2017-01-01     202 BMW           7 X6 XDRIVE 35i 3.0 306cv B~       4745
##  7 2017-01-01     202 BMW           7 X6 XDRIVE 50i 4.4 407cv B~       4746
##  8 2017-01-01     202 BMW           7 X6 XDRIVE 50i M Sport 4.4~       7088
##  9 2016-09-01     196 BMW           7 X6 M 4.4 4x4 V8 32V Bi-Tu~       5189
## 10 2016-09-01     196 BMW           7 X6 XDRIVE 35i 3.0 306cv B~       4745
## # ... with 72 more rows

O próximo passo é pegar, para cada versão, os diferentes anos de fabricação do carro. A função vai consultar os anos de fabricação que a FIPE consolidou para cada uma das 82 linhas (combinação entre modelo e mês de referência).

(base_consulta <- mutate(base_modelo, ano = pmap(list(cod_ref, cod_marca, cod_modelo), fipe_ano)) %>%
  unnest()
)

## # A tibble: 480 x 8
##    data_ref   cod_ref marca cod_marca modelo       cod_modelo ano   cod_ano
##    <date>       <int> <chr>     <int> <chr>             <int> <chr> <chr>  
##  1 2017-05-01     212 BMW           7 X6 M 4.4 4x~       5189 0 km  32000-1
##  2 2017-05-01     212 BMW           7 X6 M 4.4 4x~       5189 2017  2017-1 
##  3 2017-05-01     212 BMW           7 X6 M 4.4 4x~       5189 2016  2016-1 
##  4 2017-05-01     212 BMW           7 X6 M 4.4 4x~       5189 2015  2015-1 
##  5 2017-05-01     212 BMW           7 X6 M 4.4 4x~       5189 2014  2014-1 
##  6 2017-05-01     212 BMW           7 X6 M 4.4 4x~       5189 2013  2013-1 
##  7 2017-05-01     212 BMW           7 X6 M 4.4 4x~       5189 2012  2012-1 
##  8 2017-05-01     212 BMW           7 X6 M 4.4 4x~       5189 2011  2011-1 
##  9 2017-05-01     212 BMW           7 X6 M 4.4 4x~       5189 2010  2010-1 
## 10 2017-05-01     212 BMW           7 X6 XDRIVE 3~       4745 0 km  32000-1
## # ... with 470 more rows

Se na sua internet a função anterior demorou, prepara que a próxima vai demorar um tanto mais. Temos 480 requisições para fazer no site da FIPE em busca dos preços que queremos.

(consulta <- mutate(
  base_consulta, 
  consulta = pmap(list(cod_ref, cod_marca, cod_modelo, cod_ano), fipe)
  )  %>%
  select(consulta) %>% 
  unnest() %>% 
  select(ref, modelo, ano, valor)
)

## # A tibble: 480 x 4
##    ref        modelo                            ano    valor
##    <date>     <chr>                             <chr>  <dbl>
##  1 2017-05-01 X6 M 4.4 4x4 V8 32V Bi-Turbo Aut. 0 km  644550
##  2 2017-05-01 X6 M 4.4 4x4 V8 32V Bi-Turbo Aut. 2017  520193
##  3 2017-05-01 X6 M 4.4 4x4 V8 32V Bi-Turbo Aut. 2016  475803
##  4 2017-05-01 X6 M 4.4 4x4 V8 32V Bi-Turbo Aut. 2015  365088
##  5 2017-05-01 X6 M 4.4 4x4 V8 32V Bi-Turbo Aut. 2014  317505
##  6 2017-05-01 X6 M 4.4 4x4 V8 32V Bi-Turbo Aut. 2013  291749
##  7 2017-05-01 X6 M 4.4 4x4 V8 32V Bi-Turbo Aut. 2012  231191
##  8 2017-05-01 X6 M 4.4 4x4 V8 32V Bi-Turbo Aut. 2011  204481
##  9 2017-05-01 X6 M 4.4 4x4 V8 32V Bi-Turbo Aut. 2010  193629
## 10 2017-05-01 X6 XDRIVE 35i 3.0 306cv Bi-Turbo  0 km  415744
## # ... with 470 more rows
…
