Os gráficos que explicam nossos dados (barras)
…
Este é o segundo post de uma série que estou fazendo sobre tipos de gráficos. Falamos um pouco sobre o boxplot e agora vamos ao gráfico de barras.

Gráficos de barras são muito úteis para podermos comparar fatores. Quando estão um ao lado do outro a comparação é feita rapidamente, já que as barras dão a noção de escala. Normalmente as barras informam um resumo (i. e. média, soma ou contagem), mas podemos ainda adicionar uma barra de erro ou desvio e deixar o gráfico mais detalhado.

Continuaremos com o banco de dados apresentado no post sobre tidy data.

library(pacman)
p_load(readr, dplyr, ggplot2, ggthemes)

dados <- read_csv2("https://goo.gl/lPfEKX")

dados

## # A tibble: 2,100 × 5
##    Tratamento Individuo Coleta   Local Galhas
##         <chr>     <int>  <int>   <chr>  <int>
## 1   Actara d1         1      1 Peciolo      1
## 2   Actara d1         2      1 Peciolo     NA
## 3   Actara d1         3      1 Peciolo     NA
## 4   Actara d1         4      1 Peciolo     NA
## 5   Actara d1         5      1 Peciolo     NA
## 6   Actara d1         6      1 Peciolo     NA
## 7   Actara d1         7      1 Peciolo     NA
## 8   Actara d1         8      1 Peciolo     NA
## 9   Actara d1         9      1 Peciolo     NA
## 10  Actara d1        10      1 Peciolo     NA
## # ... with 2,090 more rows
…
Figura  1: Número total de galhas de cada tratamento.

Mas ainda temos a variável Local, certo? Podemos apresentá-la sem muito esforço.

total_trat_local <- dados %>%
  filter(Coleta == 5) %>%
  group_by(Tratamento, Local) %>%
  summarise(Galhas = sum(Galhas, na.rm=T))

total_trat_local

## Source: local data frame [21 x 3]
## Groups: Tratamento [?]
## 
##     Tratamento   Local Galhas
##          <chr>   <chr>  <int>
## 1    Actara d1   Caule     13
## 2    Actara d1 Nervura     19
## 3    Actara d1 Peciolo     41
## 4    Actara d2   Caule     10
## 5    Actara d2 Nervura      9
## 6    Actara d2 Peciolo     38
## 7    Actara d3   Caule      7
## 8    Actara d3 Nervura      6
## 9    Actara d3 Peciolo     17
## 10 Evidence d1   Caule      6
## # ... with 11 more rows
…
No caso das Figuras 10 e 11, precisamos dados dados agrupados por Tratamento e Local. O código para o gráfico é muito semelhante aos anteriores. Em alguns tratamentos há somente um indivíduo indivídio com contagem de galhas. Nesta situação não há barra de desvio.

# Seleciona apenas as Coletas de numero 5, em seguida calcula a mediana e o
# desvio padrão em função de cada Trtatamento e Local.

mediana_trat_local_desv <- dados %>%
  filter(Coleta == 5) %>%
  group_by(Tratamento, Local) %>%
  summarise(desv = sd(Galhas, na.rm=T)/sqrt(n()),
    Galhas = median(Galhas, na.rm=T))

mediana_trat_local_desv

## Source: local data frame [21 x 4]
## Groups: Tratamento [?]
## 
##     Tratamento   Local      desv Galhas
##          <chr>   <chr>     <dbl>  <dbl>
## 1    Actara d1   Caule 0.3291403      2
## 2    Actara d1 Nervura 0.8276473      3
## 3    Actara d1 Peciolo 1.0200373      4
## 4    Actara d2   Caule 0.2708013      1
## 5    Actara d2 Nervura 0.2813657      2
## 6    Actara d2 Peciolo 1.1751393      4
## 7    Actara d3   Caule 0.1118034      2
## 8    Actara d3 Nervura 0.0000000      2
## 9    Actara d3 Peciolo 0.2972092      3
## 10 Evidence d1   Caule 0.2236068      2
## # ... with 11 more rows
…
