Os gráficos que explicam nossos dados (boxplot)
…
Para iniciar, escolhi o gráfico boxplot. É um gráfico muito útil para entender a variabilidade das nossas observações. No boxplot temos 5 informações básicas: valor mínimo, primeiro quartil, mediana, terceiro quartil e valor máximo. Há ainda a notificação de outliers, quando a observação é maior ou menor que 1,5 vezes a distância interquartílica.

Vamos trabalhar com os dados que apresentei no post anterior sobre tidy data.

library(pacman)
p_load(readr, dplyr, tidyr, ggplot2, ggthemes)

dados <- read_csv2(
  "https://raw.githubusercontent.com/italocegatta/italocegatta.github.io_source/master/content/dados/base_vespa.csv"
)

dados

## # A tibble: 2,100 x 5
##    Tratamento Individuo Coleta Local   Galhas
##    <chr>          <int>  <int> <chr>    <int>
##  1 Actara d1          1      1 Peciolo      1
##  2 Actara d1          2      1 Peciolo     NA
##  3 Actara d1          3      1 Peciolo     NA
##  4 Actara d1          4      1 Peciolo     NA
##  5 Actara d1          5      1 Peciolo     NA
##  6 Actara d1          6      1 Peciolo     NA
##  7 Actara d1          7      1 Peciolo     NA
##  8 Actara d1          8      1 Peciolo     NA
##  9 Actara d1          9      1 Peciolo     NA
## 10 Actara d1         10      1 Peciolo     NA
## # ... with 2,090 more rows
…
# seleciona apenas as Coletas de numero 5, em seguida monta um fator de 
# agrupamento em função de Tratamento e Individuo. Aplica a soma de todas as
# observações (Galhas) de acordo com o fator de agrupamento. Troca os valores
# 0 (quando não há galhas) por NA.

total <- dados %>%
  filter(Coleta == 5) %>%
  group_by(Tratamento, Individuo) %>%
  summarise(Galhas = sum(Galhas, na.rm=T)) %>%
  mutate(Galhas = replace(Galhas, Galhas == 0, NA))

total

## # A tibble: 140 x 3
## # Groups:   Tratamento [7]
##    Tratamento Individuo Galhas
##    <chr>          <int>  <int>
##  1 Actara d1          1     11
##  2 Actara d1          2     NA
##  3 Actara d1          3      4
##  4 Actara d1          4     NA
##  5 Actara d1          5     NA
##  6 Actara d1          6     NA
##  7 Actara d1          7     30
##  8 Actara d1          8     NA
##  9 Actara d1          9     NA
## 10 Actara d1         10     NA
## # ... with 130 more rows
…
Podemos também avaliar a variabilidade do nº de galhas por local. Para isso vamos incluir a variável Local no agrupamento (Figura 3).

# Adiciona mais um fator de agrupamento para o resumo. Nesse caso cada
# indivíduo terá o nº de galhas explicito em cada local.

local <- dados %>%
  filter(Coleta == 5) %>%
  group_by(Tratamento, Individuo, Local) %>%
  summarise(Galhas = sum(Galhas, na.rm=T)) %>%
  mutate(Galhas = replace(Galhas, Galhas == 0, NA))

local

## # A tibble: 420 x 4
## # Groups:   Tratamento, Individuo [140]
##    Tratamento Individuo Local   Galhas
##    <chr>          <int> <chr>    <int>
##  1 Actara d1          1 Caule        2
##  2 Actara d1          1 Nervura      3
##  3 Actara d1          1 Peciolo      6
##  4 Actara d1          2 Caule       NA
##  5 Actara d1          2 Nervura     NA
##  6 Actara d1          2 Peciolo     NA
##  7 Actara d1          3 Caule        1
##  8 Actara d1          3 Nervura      1
##  9 Actara d1          3 Peciolo      2
## 10 Actara d1          4 Caule       NA
## # ... with 410 more rows
…
Figura  3: Boxplot que mostra o nº de galhas por local e tratamento.

Uma outra perspectiva é avaliar a evolução do total de galhas por coleta. Para isto basta incluir a variável Coleta no agrupamento (Figura 4). Para facilitar a visualização, vou excluir a primeira coleta. Podemos ainda adicionar os pontos que representam as observações para poder identificar quantas observações tem cada tratamento.

total_coleta <- dados %>%
  filter(Coleta != 1 ) %>%
  group_by(Tratamento, Coleta, Individuo) %>%
  summarise(Galhas = sum(Galhas, na.rm=T)) %>%
  mutate(Galhas = replace(Galhas, Galhas == 0, NA))

total_coleta

## # A tibble: 560 x 4
## # Groups:   Tratamento, Coleta [28]
##    Tratamento Coleta Individuo Galhas
##    <chr>       <int>     <int>  <int>
##  1 Actara d1       2         1      3
##  2 Actara d1       2         2     NA
##  3 Actara d1       2         3     NA
##  4 Actara d1       2         4     NA
##  5 Actara d1       2         5     NA
##  6 Actara d1       2         6     NA
##  7 Actara d1       2         7      2
##  8 Actara d1       2         8     NA
##  9 Actara d1       2         9     NA
## 10 Actara d1       2        10     NA
## # ... with 550 more rows
…
