ANOVA e teste de Tukey
…
Como contexto, temos um teste de 5 progênies de eucalipto e queremos avaliar se volume por hectare (nossa variável resposta), difere entre os tratamentos.

Pois bem, para percebermos a dimensão dos dados e qual a variabilidade de cada tratamento, vamos criar um boxplot (Figura 1). Caso você queira saber um pouco mais sobre este tipo de gráfico, veja o post sobre ele.

if (!require("pacman")) install.packages("pacman")
pacman::p_load(readr, dplyr, tibble, ggplot2, car, agricolae)

dados <- read_csv2(
  "https://github.com/italocegatta/italocegatta.github.io_source/raw/master/content/dados/base_progenie.csv"
)

dados

## # A tibble: 30 x 3
##    repeticao progenie volume
##        <dbl> <chr>     <dbl>
##  1         1 A           212
##  2         2 A           206
##  3         3 A           224
##  4         4 A           289
##  5         5 A           324
##  6         6 A           219
##  7         1 B           108
##  8         2 B           194
##  9         3 B           163
## 10         4 B           111
## # ... with 20 more rows
…
