Grid regular sobre polígonos com pacote sf
…
focos <- read_csv2("https://raw.githubusercontent.com/italocegatta/italocegatta.github.io_source/master/content/dados/base_incendios.csv") %>% 
  filter(ano == 2016)

focos

## # A tibble: 27 x 3
##    sigla   ano focos
##    <chr> <int> <int>
##  1    AC  2016    75
##  2    AL  2016    67
##  3    AM  2016  1270
##  4    AP  2016    27
##  5    BA  2016  1818
##  6    CE  2016   159
##  7    DF  2016    42
##  8    ES  2016   299
##  9    GO  2016   889
## 10    MA  2016  1558
## # ... with 17 more rows
…
