Web scraping: dados de páginas da internet na palma da sua mão
…
qnt <- map_df(
  tabelas, 
  ~filter(.x, str_detect(produto, c("Lenha de eucalipto", "quantidade"))) %>% 
  '[['("valor") 
  ) %>%
  gather(estado, volume) %>% 
  mutate(volume = as.numeric(str_replace_all(volume, "\\.", "")))

qnt 

## # A tibble: 27 x 2
##       estado volume
##        <chr>  <dbl>
##  1  Rondônia    690
##  2      Acre     NA
##  3  Amazonas     NA
##  4   Roraima     NA
##  5      Pará     NA
##  6     Amapá     NA
##  7 Tocantins   2300
##  8  Maranhão 195428
##  9     Piauí 188724
## 10     Ceará     NA
## # ... with 17 more rows
…
