Os gráficos que explicam nossos dados (heatmap)
…
dados <- read_csv2(
  "https://github.com/italocegatta/italocegatta.github.io_source/raw/master/content/dados/tume0.csv"
)

# Cria um fator com o atributo para a variável Esp que informa a ordem crescente
# das espécies em função da altura dominante.
dados <- dados %>% 
  mutate(
    Esp = reorder(Esp, Hdom, function(x) max(x)),
    Idade = round(I_meses/12,1)
  )
dados

## # A tibble: 138 x 16
##    N_tume Esp       I_meses Parc_m2 DAPmed DAPsd  Hmed   Hsd  Hdom N_fuste
##     <int> <fct>       <int>   <dbl>  <dbl> <dbl> <dbl> <dbl> <dbl>   <int>
##  1      0 Clone_1        52   1426.  11.4   1.40 16.5   1.30 17.8     1789
##  2      0 Clone_2        52   1426.  10.2   1.40 15.9   1.40 16.6     1662
##  3      0 Clone_3        52   1426.  10.7   1.60 15.0   1.30 16.1     1824
##  4      0 E_bentha~      52   1426.   9.00  2.70  9.80  2.30 13.0     1494
##  5      0 E_botryo~      52   1426.   9.10  4.30 10.8   3.40 15.3     1368
##  6      0 E_camald~      52   1426.   8.30  2.90  8.30  2.30 11.8     1557
##  7      0 E_citrio~      52   1426.   8.00  3.50  8.30  2.80 12.0      954
##  8      0 E_cloezi~      52    929.   7.50  2.50  7.00  2.00  9.60    1367
##  9      0 E_deanei       52   1426.  10.6   2.90 11.3   1.80 13.4     1087
## 10      0 E_dunnii       52   1426.   6.70  3.70  6.10  2.40 10.3      779
## # ... with 128 more rows, and 6 more variables: Sobr <dbl>, G <dbl>,
## #   V <int>, IMA <dbl>, B <int>, Idade <dbl>
…
