O conceito tidy data
…
dados1 <- bind_rows(dados1)

Como minhas análises vão considerar o local da galha como o variável, devo organizar Peciolo, Nervura e Caule em uma só coluna denominada Local.

# Transforma as columas ´Peciolo´, ´Nervura´ e ´Caule´ em uma só coluna
# denominada ´Local´.

dados1 <- gather(
  dados1, "Local",
  "Galhas", c(Peciolo, Nervura, Caule)
)

dados1

## # A tibble: 2,100 × 5
##    Tratamento Individuo Coleta   Local Galhas
##         <chr>     <dbl>  <chr>   <chr>  <dbl>
## 1   Actara d1         1     c1 Peciolo      1
## 2   Actara d1         2     c1 Peciolo     NA
## 3   Actara d1         3     c1 Peciolo     NA
## 4   Actara d1         4     c1 Peciolo     NA
## 5   Actara d1         5     c1 Peciolo     NA
## 6   Actara d1         6     c1 Peciolo     NA
## 7   Actara d1         7     c1 Peciolo     NA
## 8   Actara d1         8     c1 Peciolo     NA
## 9   Actara d1         9     c1 Peciolo     NA
## 10  Actara d1        10     c1 Peciolo     NA
## # ... with 2,090 more rows
…
Figura  3: Modificação do banco de dados original para ser importado no R. Alteração dos nomes das colunas.

Vamos agora importar e organizar os dados no mesmo formato que no método 1, mas com um código bem mais simples.

# Lê os dados, transforma as variáveis que estão em várias colunas em uma só e
# Separa as informações que estão na coluna ´Local´ em duas colunas (variáveis)
# ´Coleta´ e ´Local´.

dados2 <- read_excel(base_vespa2) %>%
  gather("Local", "Galhas", 3:dim(.)[2]) %>%
  separate(Local, c("Coleta", "Local"))

dados2

## # A tibble: 2,100 × 5
##    Tratamento Individuo Coleta   Local Galhas
## *       <chr>     <dbl>  <chr>   <chr>  <dbl>
## 1   Actara d1         1      1 Peciolo      1
## 2   Actara d1         2      1 Peciolo     NA
## 3   Actara d1         3      1 Peciolo     NA
## 4   Actara d1         4      1 Peciolo     NA
## 5   Actara d1         5      1 Peciolo     NA
## 6   Actara d1         6      1 Peciolo     NA
## 7   Actara d1         7      1 Peciolo     NA
## 8   Actara d1         8      1 Peciolo     NA
## 9   Actara d1         9      1 Peciolo     NA
## 10  Actara d1        10      1 Peciolo     NA
## # ... with 2,090 more rows
…
